{
  "name": "StoneWaterWell",
  "version": "1.20.1",
  "factorio_version": "1.1",
  "title": "Stone Water Well",
  "author": "bSun0000, 0.15 update support from ElecNinja, 0.16 update as offshore pump by Roy",
  "contact": "-",
  "homepage": "https://forums.factorio.com/viewtopic.php?f=93&t=26937",
  "description": "Fresh water anywhere.",
  "dependencies": ["base"]
}
